[gd_scene load_steps=2 format=1]

[ext_resource path="res://hello.gd" type="Script" id=1]

[node name="Panel" type="Panel"]

focus/ignore_mouse = false
focus/stop_mouse = true
size_flags/horizontal = 2
size_flags/vertical = 2
margin/left = 253.0
margin/top = 68.0
margin/right = 672.0
margin/bottom = 340.0
script/script = ExtResource( 1 )

[node name="Label" type="Label" parent="."]

anchor/right = 1
rect/scale = Vector2( 2, 2 )
hint/tooltip = "gfgfgf
fdgdf
dfgfg"
focus/ignore_mouse = false
focus/stop_mouse = true
size_flags/horizontal = 2
size_flags/vertical = 0
margin/left = 90.0
margin/top = 37.0
margin/right = 207.0
margin/bottom = 71.0
text = "This is label"
align = 1
valign = 1
percent_visible = 1.0
lines_skipped = 0
max_lines_visible = -1

[node name="Button" type="Button" parent="."]

focus/ignore_mouse = false
focus/stop_mouse = true
size_flags/horizontal = 2
size_flags/vertical = 2
margin/left = 168.0
margin/top = 149.0
margin/right = 262.0
margin/bottom = 180.0
toggle_mode = false
enabled_focus_mode = 2
shortcut = null
text = "Press Me"
flat = false

[connection signal="pressed" from="Button" to="." method="_on_Button_pressed"]


